{
  "files": {
    "main.css": "./static/css/main.5f361e03.chunk.css",
    "main.js": "./static/js/main.fc1b9977.chunk.js",
    "main.js.map": "./static/js/main.fc1b9977.chunk.js.map",
    "runtime-main.js": "./static/js/runtime-main.7bb6d09e.js",
    "runtime-main.js.map": "./static/js/runtime-main.7bb6d09e.js.map",
    "static/js/2.e4c4e29a.chunk.js": "./static/js/2.e4c4e29a.chunk.js",
    "static/js/2.e4c4e29a.chunk.js.map": "./static/js/2.e4c4e29a.chunk.js.map",
    "index.html": "./index.html",
    "precache-manifest.96f9710e12f637c7c29d2ea31f23df17.js": "./precache-manifest.96f9710e12f637c7c29d2ea31f23df17.js",
    "service-worker.js": "./service-worker.js",
    "static/css/main.5f361e03.chunk.css.map": "./static/css/main.5f361e03.chunk.css.map",
    "static/js/2.e4c4e29a.chunk.js.LICENSE.txt": "./static/js/2.e4c4e29a.chunk.js.LICENSE.txt",
    "static/media/logo.svg": "./static/media/logo.5d5d9eef.svg"
  },
  "entrypoints": [
    "static/js/runtime-main.7bb6d09e.js",
    "static/js/2.e4c4e29a.chunk.js",
    "static/css/main.5f361e03.chunk.css",
    "static/js/main.fc1b9977.chunk.js"
  ]
}